Terminé con la siguiente cadena
--------------------
Mi blockchain es la siguiente en 
--------------------
Block number: 10
Owner: 3
Previous block hash: 005f14171e34e17d2c206c8369331b35e9d503332bac2b33294004fbbb925b84
Block hash: 000614b8f31879bc9ca83cf6b1dbb292560168cdf8b5492e6e095b7a7756efd9
--------------------
--------------------
Block number: 9
Owner: 3
Previous block hash: 005e7fd15cf4ccd8ac6e40200f2bf5e87b6c9a0e4f66854d2738cd0b74997fcd
Block hash: 005f14171e34e17d2c206c8369331b35e9d503332bac2b33294004fbbb925b84
--------------------
--------------------
Block number: 8
Owner: 0
Previous block hash: 0062514e59699f415efab24a05471cc9d3940d8341dd873735d787fdd7b103e3
Block hash: 005e7fd15cf4ccd8ac6e40200f2bf5e87b6c9a0e4f66854d2738cd0b74997fcd
--------------------
--------------------
Block number: 7
Owner: 0
Previous block hash: 004ec62a66507abecc12fe3c2357bc7c381ddda91fa773332a0b42dc8287bf4d
Block hash: 0062514e59699f415efab24a05471cc9d3940d8341dd873735d787fdd7b103e3
--------------------
--------------------
Block number: 6
Owner: 1
Previous block hash: 00006e2d4f0f157918d4676b4ee0b1721863476fdfbf1fe11f4d2a2bf5b0ed8a
Block hash: 004ec62a66507abecc12fe3c2357bc7c381ddda91fa773332a0b42dc8287bf4d
--------------------
--------------------
Block number: 5
Owner: 1
Previous block hash: 00504e7eb3bb08d1b06cdaeb2008a5869f1243e2a6f34892406a1310543f328d
Block hash: 00006e2d4f0f157918d4676b4ee0b1721863476fdfbf1fe11f4d2a2bf5b0ed8a
--------------------
--------------------
Block number: 4
Owner: 0
Previous block hash: 0016608980b2616c434ee62b16b86ee423bbe0f12a5f5789eaedee48fee73b6f
Block hash: 00504e7eb3bb08d1b06cdaeb2008a5869f1243e2a6f34892406a1310543f328d
--------------------
--------------------
Block number: 3
Owner: 3
Previous block hash: 006715b9e1ae1eec8e5ef5484470459866e87ca4e1de44f810dfd2c3cdddbc76
Block hash: 0016608980b2616c434ee62b16b86ee423bbe0f12a5f5789eaedee48fee73b6f
--------------------
--------------------
Block number: 2
Owner: 3
Previous block hash: 004dc5e4b88cb568de4dcac76bb33e3118be83d363941b847ed1ff9084624622
Block hash: 006715b9e1ae1eec8e5ef5484470459866e87ca4e1de44f810dfd2c3cdddbc76
--------------------
--------------------
Block number: 1
Owner: 1
Previous block hash: 
Block hash: 004dc5e4b88cb568de4dcac76bb33e3118be83d363941b847ed1ff9084624622
--------------------
